Principles of Data Visualization and Storytelling
…
We will use a small outbreak-style dataset.

cases <- tibble(
  week = rep(1:12, times = 3),
  district = rep(c("North", "Central", "South"), each = 12),
  cases = c(
    12, 15, 18, 26, 35, 48, 60, 54, 42, 30, 22, 18,
    8, 10, 11, 14, 18, 23, 28, 31, 34, 37, 35, 30,
    20, 21, 19, 18, 20, 22, 24, 23, 22, 21, 19, 18
  )
)

cases

# A tibble: 36 × 3
    week district cases
   <int> <chr>    <dbl>
 1     1 North       12
 2     2 North       15
 3     3 North       18
 4     4 North       26
 5     5 North       35
 6     6 North       48
 7     7 North       60
 8     8 North       54
 9     9 North       42
10    10 North       30
# ℹ 26 more rows
…
